Toby Wang’s Personal Site - College Football Rankings and Market Efficiency
…
library(tidyverse)
football <- read_csv('https://ditraglia.com/data/fair_football.csv')

Rows: 1582 Columns: 10
── Column specification ────────────────────────────────────────────────────────
Delimiter: ","
dbl (10): SPREAD, H, MAT, SAG, BIL, COL, MAS, DUN, REC, LV

ℹ Use `spec()` to retrieve the full column specification for this data.
ℹ Specify the column types or set `show_col_types = FALSE` to quiet this message.

football

# A tibble: 1,582 × 10
   SPREAD     H   MAT   SAG   BIL   COL   MAS   DUN   REC    LV
    <dbl> <dbl> <dbl> <dbl> <dbl> <dbl> <dbl> <dbl> <dbl> <dbl>
 1     34     1     7    31    28    17    38    14  0     24  
 2     29    -1    34    29    10    41    26    18 33.3   13.5
 3     10    -1   -16   -23   -33     5   -12   -25  8.33 -10.5
 4    -11     1     2    -8    -8    -7    -2    -4  0      3  
 5     35    -1    35    35    38    25    25    28 25      5  
 6     -2     1    29    36    17    25    20    11 33.3   11.5
 7     11     1    35    39    28    40    30    34 41.7   10  
 8     20     1    29    13    12    37    13    26 25      7.5
 9      7     1    40    41    -7    45    36    43 66.7   11.5
10     20    -1    61    37    36    80    51    35 75     11  
# ℹ 1,572 more rows
…
