Toby Wang - Bias in the Labor Market
…
ncol(bm)

[1] 65

We see from these commands that the tibble has 4870 rows and 65 columns

b)

Display only the columns sex, race and firstname of bm. What information do these columns contain? How are sex and race encoded?

bm |>
  select(sex, race, firstname) 

# A tibble: 4,870 × 3
   sex   race  firstname
   <chr> <chr> <chr>    
 1 f     w     Allison  
 2 f     w     Kristen  
 3 f     b     Lakisha  
 4 f     b     Latonya  
 5 f     w     Carrie   
 6 m     w     Jay      
 7 f     w     Jill     
 8 f     b     Kenya    
 9 f     b     Latonya  
10 m     b     Tyrone   
# ℹ 4,860 more rows

This tibble contains the sex, race of the individual corresponding to their first name. sex is encoded as m for male and f for female. race is encoded as w for white and b for black.

c) Add two new columns to bm: female should take the value TRUE if sex is female, and black should take value TRUE if race is black.

To do this we need to create logic vectors and test (iterate) through the sex and race columns to determine if each other them are female or black. Then we use mutate() to add the two columns in the tibble.

sex_f <- bm[["sex"]] == "f"
race_b <- bm[["race"]] == "b"

bm |>
  select(sex, race, firstname)|>
  mutate(sex_f, race_b)

# A tibble: 4,870 × 5
   sex   race  firstname sex_f race_b
   <chr> <chr> <chr>     <lgl> <lgl> 
 1 f     w     Allison   TRUE  FALSE 
 2 f     w     Kristen   TRUE  FALSE 
 3 f     b     Lakisha   TRUE  TRUE  
 4 f     b     Latonya   TRUE  TRUE  
 5 f     w     Carrie    TRUE  FALSE 
 6 m     w     Jay       FALSE FALSE 
 7 f     w     Jill      TRUE  FALSE 
 8 f     b     Kenya     TRUE  TRUE  
 9 f     b     Latonya   TRUE  TRUE  
10 m     b     Tyrone    FALSE TRUE  
# ℹ 4,860 more rows
…
